%YAML 1.1
%TAG !u! tag:unity3d.com,2011:
--- !u!1045 &1
EditorBuildSettings:
  m_ObjectHideFlags: 0
  serializedVersion: 2
  m_Scenes:
  - enabled: 0
    path: Assets/Scenes/Test_Build_pointer.unity
    guid: 9599a8c926bbc214093930204b7f5309
  - enabled: 1
    path: Assets/Scenes/StartingScene.unity
    guid: 04a3a21680cc0f64b89073c79c4424d1
  - enabled: 1
    path: Assets/Scenes/Menu.unity
    guid: c076f3376fc867e4da20e9eca53bb348
  - enabled: 1
    path: Assets/Scenes/Main.unity
    guid: 9fc0d4010bbf28b4594072e72b8655ab
  - enabled: 1
    path: Assets/Scenes/Training.unity
    guid: 03a68fcdb31aa674eae6d83d7e823d20
  m_configObjects: {}
